Otros paquetes y funciones útiles
…
.font140[
Utilizamos `across()` para transformar el tipo de datos de character a Date en las fechas (variables que comienzan con "FE") de la tabla rita en solo paso.

]

```r
rita |> 
  mutate(across(starts_with("FE"),
                dmy)) |> 
  select(where(is.Date))
```

```
## # A tibble: 1,067 × 8
##    FENAC      FEREG      FEINI      FECON      FEDG       FEREGTTO   FEULT     
##    <date>     <date>     <date>     <date>     <date>     <date>     <date>    
##  1 1985-05-18 2023-04-12 NA         2022-05-26 2022-05-26 NA         NA        
##  2 1944-10-03 2020-01-29 NA         2019-11-15 2019-12-09 NA         2020-07-16
##  3 1965-07-08 2017-09-17 2015-06-15 2017-03-08 2017-07-06 NA         2019-02-20
##  4 1966-06-11 2018-02-27 2016-06-15 2017-01-16 2017-01-17 NA         2018-07-21
##  5 1980-05-03 2017-06-12 NA         2016-09-07 2016-12-07 NA         2017-02-22
##  6 1935-02-13 2018-06-22 NA         2018-05-14 2018-05-14 NA         NA        
##  7 1958-01-09 2022-08-10 NA         2020-11-09 2020-12-30 NA         2021-03-06
##  8 1962-07-31 2018-04-13 NA         2018-01-24 2018-01-24 NA         NA        
##  9 1938-02-07 2017-03-19 2016-06-30 2016-06-30 2016-10-26 2017-03-19 2018-11-13
## 10 1926-05-31 2019-04-30 NA         NA         2018-11-22 2019-04-30 2022-11-16
## # ℹ 1,057 more rows
## # ℹ 1 more variable: FEDEF <date>
```
…
